{
  "project_info": {
    "project_number": "794571494744",
    "firebase_url": "https://bharat-demo-practical-default-rtdb.firebaseio.com",
    "project_id": "bharat-demo-practical",
    "storage_bucket": "bharat-demo-practical.appspot.com"
  },
  "client": [
    {
      "client_info": {
        "mobilesdk_app_id": "1:794571494744:android:4d02a252a3f96afd88412d",
        "android_client_info": {
          "package_name": "com.bharat.bharatpraticalcalulation"
        }
      },
      "oauth_client": [
        {
          "client_id": "794571494744-tc5nr7r9jhbe222kce8d8j4pj0qtef64.apps.googleusercontent.com",
          "client_type": 3
        }
      ],
      "api_key": [
        {
          "current_key": "AIzaSyD9Wj7UtRXm1r85mleWoNEIPcTZlT2lsqk"
        }
      ],
      "services": {
        "appinvite_service": {
          "other_platform_oauth_client": [
            {
              "client_id": "794571494744-tc5nr7r9jhbe222kce8d8j4pj0qtef64.apps.googleusercontent.com",
              "client_type": 3
            }
          ]
        }
      }
    }
  ],
  "configuration_version": "1"
}